<?xml version="1.0" encoding="UTF-8" standalone="no"?>
<!-- Created with Inkscape (http://www.inkscape.org/) -->

<svg
   xmlns:dc="http://purl.org/dc/elements/1.1/"
   xmlns:cc="http://creativecommons.org/ns#"
   xmlns:rdf="http://www.w3.org/1999/02/22-rdf-syntax-ns#"
   xmlns:svg="http://www.w3.org/2000/svg"
   xmlns="http://www.w3.org/2000/svg"
   xmlns:xlink="http://www.w3.org/1999/xlink"
   xmlns:sodipodi="http://sodipodi.sourceforge.net/DTD/sodipodi-0.dtd"
   xmlns:inkscape="http://www.inkscape.org/namespaces/inkscape"
   width="148mm"
   height="105mm"
   viewBox="0 0 148 105"
   version="1.1"
   id="svg451"
   inkscape:version="0.92.0 r15299"
   sodipodi:docname="templateA6.svg">
  <defs
     id="defs445" />
  <sodipodi:namedview
     id="base"
     pagecolor="#ffffff"
     bordercolor="#666666"
     borderopacity="1.0"
     inkscape:pageopacity="0.0"
     inkscape:pageshadow="2"
     inkscape:zoom="0.35"
     inkscape:cx="-394.28571"
     inkscape:cy="537.14286"
     inkscape:document-units="mm"
     inkscape:current-layer="layer2"
     showgrid="false"
     inkscape:window-width="1366"
     inkscape:window-height="704"
     inkscape:window-x="0"
     inkscape:window-y="27"
     inkscape:window-maximized="1" />
  <metadata
     id="metadata448">
    <rdf:RDF>
      <cc:Work
         rdf:about="">
        <dc:format>image/svg+xml</dc:format>
        <dc:type
           rdf:resource="http://purl.org/dc/dcmitype/StillImage" />
        <dc:title />
      </cc:Work>
    </rdf:RDF>
  </metadata>
  <g
     inkscape:label="back"
     inkscape:groupmode="layer"
     id="layer1"
     transform="translate(0,-192)"
     sodipodi:insensitive="true">
    <g
       id="g1275"
       transform="translate(75.144891,122.33651)">
      <g
         transform="matrix(0.26458333,0,0,0.26458333,-108.13529,137.7847)"
         id="g6862">
        <rect
           style="display:inline;opacity:0.71929824;fill:none;stroke:#000100;stroke-width:0.54503554;stroke-miterlimit:4;stroke-dasharray:none;stroke-opacity:1;enable-background:new"
           id="rect12533-6"
           width="266.63925"
           height="361.0538"
           x="137.4614"
           y="-239.5677"
           rx="14.933333"
           ry="14.933333"
           inkscape:export-filename="/home/claude/Daten.2017/myLife/Tagebuch/2017/januar/Shrink-Disorder-Tarot-0.2.0/png/EN/s1.png"
           inkscape:export-xdpi="359.28"
           inkscape:export-ydpi="359.28" />
        <g
           style="display:inline;enable-background:new"
           id="g6621"
           transform="matrix(0.91595896,0,0,0.91595896,124.87894,-242.82023)">
          <g
             transform="translate(-0.38638102,-10)"
             id="g5059"
             style="display:inline;enable-background:new">
            <image
               y="294.09543"
               x="239.89445"
               id="image16633"
               xlink:href="data:image/png;base64,iVBORw0KGgoAAAANSUhEUgAAAGUAAACICAYAAAD+piWTAAAABHNCSVQICAgIfAhkiAAAC3FJREFU eJztXc1u4sgWPsZOSBATzSgKGqO7ubsoi0631I8wm3kE5pnmOeJHmM28wc1VgAXKrjctiHqUVpRB AYNNzYI5pHBsqJ9TP6b7k6zukGCX/dX5reNTAAeGcdxhrsegi8D1AGTwEoXsNMu3PptFIQAAFD/n f1f8/SwKoZXl3t67twNDMADjMz/w7Dk0XA+gDC9RyF6ikNkgBGBNPANgL1HoherzaoaUqSfbQJXn Ur15QwrOUtekIFyS41x98WrKF0IA1mM5zXJwodacksLbDJ8I4YESY5MYZ+rLlhGnhg132omk1JUQ hGmpsS4pPnhYFDApMVYl5VAIQZiSeGukMAASQmZRCAFAgMeiP0z4n21F53gvJoixcgMUA8eHvWLZ 1rmm6Qraze25NU1XcHZyHIzjDosnX3QvLTU+ChiXlJcoZHxiUBSzKIRZFMIk7sCiP0xWLGNFQgDg DSH42Ypl7OfxGAKAQOX6sqCUGKOSgjZkFoXScQga0jIiZIGSY9rrozL+RiUFiVCxJVSEALxKzqI/ TCZxB0xJDpUTY0xSdDytAICMEMQ0XQHAmqCHbhdM2hpd++I898UDPStqQgDWZKD9aX/6bHQNRTe4 NDIwflAy0jKLQsims1LjbQKNIDJmZ3RIN3b3mGWVQSvLA1uEAKzda1PemY60kD8BVVsyiTtvYhAb eJ4vWCvLrbjNoiAnRdW4dydfnGSs0TMLb+82npkOQbrfBzBgU1R19KI/TI6ur3rU45GBbjwTAAQM gGFcphq3kJKiorpmUQhPF+fw83isfF1MtZSlXFRQdAB2Bb/FZePisraKwSdVXyqEUKB5f580gig4 OzkOloNRonqeabqCabqC5/liE2juQyvLg/D2Lvn/3f9+x8+8yoRjqY7sAbD2hFSOsuum/eGN6vmK R9of3lTdb/E6j1/nDOC17kBDDdJBRxereF6NIAqqqiYp0zQA2xmBsp8Ry8EoyT9+6OGYVOxKrUnZ lS6hDkRl7BVOFoC1KpO1K2Q2xXYZzjRdwY9/PVb+/jTLoXl/r2xfqq4p8jcY+7SyXGnRzWnuC316 lUr55v19ss+gNt+/+015cAVg7mw5GCWNIArKjuVglODf6ajOiGrQOh7HrhmvilkUAhB7QegqM4De 5hoAm5gk//gBjv/9/9PFOem1laDqeel4TOO4U3k+VKdUHtg47jDeq5I98Lsiap7M0OtmW1WM/a4s L5Wh5z08lRXUsnEBbGuWot3xZj3lJQqZiCHlURVDoPqgJASAJigUyZ57Q8pplsPZybGU5B5dX/X4 WcZnCNqfPiuPZTkYJQ/drpVKzrKshjekIGSlpbgmMok7EN7eJTpS8vjrLz2Mf0ylTNDzLAssyWwK VfXjoj9M0svLnspDNZWQpAYvHWWkkEoKxTqETmxBFb2n/eGNSDJSFadZDhhclv3eeeqeB5Jqc52+ CiZrxfZF+V7kvoowVdGiAlRlxUBRdPIVXWCRtIt3hh5gTa7OugglcG1Ft/JRpvjcK/XFIwAInucL BkBnK0SBqgtgu6AcP68qoSqzqU8X59L1B15KCsCa4LOTY6slRwi8JgNgD90uoNS2mw14ni9YNp1B eHuXYBY4AAgmcQeeLs43BhwPlYIQbwonithE5Z8+OzP6D93uJlmK6qsovbwbzv+/EUT+FeNR4Me/ HqWjfEqc//Hnxq5hYjFqn8LZyfEmVV/8zjRdaREC4LGk8HBZflRcRSxD0ZboNucxMgupiXHtIu+L 8He5yCorj7UgBcAPYmQL11WLvI3YFBN1ueO4I53apwSWtoqqIp2qe2NGlFpaTJQNqYKPYwDWE4ay FtqY92Xq9QIfIn0sjMCqSOridKPuJqW0oDF1bVum6Qqa9/cJZaVMEUbjFBOvsLnMizWCKIjap3D8 /l1Ppyx1H4wHZnX3xNC5qErjm5h4ZHVfVcB3NijPabPNbbvZKH01AsBc1zyv0yxViCdftFMZolgO RknZpDLZ88v4jZnqXGRThRULyU03YqulTQFYP5iTZWri1G9QlmYx+R6+UfVluhLflhf2PF+8afpj 8t6sNMwxAdsRfpmxr6Wh9+rdP02Ulciakpba5L7KgOv4tlYmcSVyV3E2BWrpEiPGcccaIQCvOS7e vpiQFmMNc2yprr/nC6tr+POj5hu1TC0tRu7GBiGbMlfi9xr3ocy4U6tqIw1zbDSfUemSRIFd79VT gTz3dUgeVxnwnZiidDAARqXGSCXFlpQUYXOZeJqujEtLbdbofUG72YCj66te2asShAXuNLDdMp1P n7tYiawqO6JQYbWOU1zi8eu8VFVTSAsJKa42FnDpVPz0U/SmgQHVBjgk6stGSqUKLgspqlYkAfQW wbQlxZdt+Fwg7Q9v+J6RGDudZrlf3VZtw0YwVwUsOqdWo1qkHNomNSqoUlM60lJ7SXGNXZKqOmGV SfmWbQmPo+ur3q5gWeU5fZcUAuzq7aUiLUpumw+2BGenrYqWKog0QZBdz1eSFNeEILzoPicA2ecl TYqrTHARp1nurD8+j3azIeSWy9iWWtsUlzEKj/TykvQlWSlS0Jb4or58QbvZAJGuR6LSIiX+LnNc RdguL9oHkTeIAcRyYsKk+EKI63WUKog2bhPxxPyYZoJAQp4uzp3sSmQLQpLii5QgXL/3WAYZSQHY rcb2VrO8RCGj7oStg1kUQnp754XXpQIRJ2mv+vLN02pleUDtglJA1j3f5YntJMXXpKMvHpcp7L07 H6J3hI+2RAdVk77SpvgoJb5E8EVM0xXA5WXvWOI7u8xCpQfw3eOSwzRdwQ8nMrSsURa3lKovHwnB NoG+grL633uLOYtCSPvDm0M17mVr+W9sim9S0sryYHV95dWYqFG0L1vTD9dKfPG4fLcjlOClJaj6 heugsW6EUOwkgcXhG0nh10p8IOR5vnDanlAFuhoGhcJ4FyNR+JqSlwHVZG4A+BMo1pmQcdzZ2GNV iUFPrMF/4AKzKIQAIMims1qvkRSbHujAmfM/i8LN/lkrlnmzrKuC5WC02Z1V1yb/u6mBm1fjWlnu 1Rq7Cva1MpTFlveluvGw6oXD27uk7oQAvO4nrAtU4fjzlvcVAJTu706BACBI+8MbjM7Tmrm7Vahq ZyiKACAoruxWSse+nRBkL3wIklEG1aBxl2aqjFP4dDKF9BwiISpSImImlO2IjCTVLWUiAhPV9ggt 4y4qQYdIislexYenUyyguJcKgqqnpBYprhOXLrAcjJJx3NnSENRNPpVJ8W0xzAaWg1Hy+OsvPdzR DkHddVXpZCoeR91tynIwSvKPH3qmWxUCSKbuN3r0G1Jbu7ysWRQaeRbC6osBKMUqsygE3ytRqrCP EKfNovlByRLTynInW83qYjkYJdP//qdUVZvegGBvLbFuXsfXqsYqLAej5KHbheP373r8ThA8TBIC sCf3paKuJnEHupMvwePXOTtqyWVR+b13baC41+847rAqIoowLS1bQOnAf0UOdADS/vBmxTLGH8/z BauSlnHcYS9RuHWU/V3aH96UnVv3QFs3jjvC91p2mGMDXjctLj7wIkH8wyt7WDwJPMkyRJeNA7d9 UiXoeb5gvGuuM55dk9MoIXjwe2DteiBIRtXN6pLCfx8fgAgZZZPE5KFNzr4ZjITgLKs6RM5l4uDH h2PkVaauanJBzt5tvXngC/zF9hvjuMMw9eCyKqaV5ZuVU77Mx3WOTjbqDwDgm8xj2YYMMQ38Ah4y xWS+FILXATITX/k9er7DKO7r+x27ISotQpEaL0l46A3v24OMVlEu8MZo1pc65EOCdk7DWqphD9AW FiXZh5egZFMyJK9CoCsK4Nb95G8ciWFZ7qSTn06LddJZ7qrhp4iNszU2CntrRPWgt2YygKPI0sq8 Tki1uYAIrNgDHdVmeu93H/EPZo7rEE3kqrwAAAAASUVORK5CYII= "
               height="38.515827"
               width="27.204048" />
            <image
               y="296.35135"
               x="52.252037"
               id="image16644"
               xlink:href="data:image/png;base64,iVBORw0KGgoAAAANSUhEUgAAAGUAAACICAYAAAD+piWTAAAABHNCSVQICAgIfAhkiAAACaZJREFU eJztnc9u40YSh3/NaMbCjGBb5ugUBAGCAMkpk01eYYG8ifMAeY3dB7DeZC7zBtFKvuwGzmWxyInD oWQIA8tm2HuQW6ZpkmJ3V3cXFX9AgMl4TDZZXX+6qtgN9JV4KWv/fACI0ANoYwJJ9rITCNbPWobd QCkF0QR3AbEYnA9B1MFVOEEHFUoYVZJ4BaSnbAQUZCBchFGFi+ZEPm82gZRcBQLcTxYGkZyfmREv 5SQ98XIrKkJqjfMbc9aMfYQSjNOb9lkgihCCceNT4iVr36FDiOegnwU99B9d8Kkx5DfyObM6rS8I J4kvwZDexEuKJF5t/5CeiuubWzk6arbA602B0VGESAwElXB8CIbMp/gSyOz962nxYYRC5q0CAQD1 80LmsvgwQgIhknj1IFgDfDwnidR9JRELmVvfJ8tyxGdDYTNm19pirSmuBZLEK7xb5FMKgQDAeDxA IXNp82JdP7O1xF0OkEo7mojEwFhjXCYxrS7aZ4EoojdrmAYArsyY14RkV3wJBADSq6Hx77qalOzs qk+BKKzMmANtYaMp1A5dh/Tjjfk9HaT6WWhKAiFmi7uL778T51TX1IWTtgxMfqk6+CReWTnLENrB GRrzlZ4KtVruglpVcxIIJxNmLRSluoXM5ez962lXwczevybxH5EYCPXf/FJOTa8zHhsZDQAwthJN aNvCJ6YL4klicH4ppz+8ffEzgO0sKi2yKH1HnR+w0T4uaxZrofzn42bvLFtvCgAPCUIK2hzzu0U+ NRF874Wi0gwhfEKW5fj27Kjx56bawiUC0566CYRIIER6NcT1zW0QJx2fDfcWtswuHL69CLBw9OPx AKOjCFmWY34pp2WHG4mBiN6sEYmBWM1h7HxNmaQnO5Op+3vGEArUOOSI3qwB7B7kfAL5yIYnWGEC Kcd/pzVzWZZTXKbhup85ubYue+0g1co9gRC/rm7/8bfj6Bfba+2z/SY+xcaflO9r8/uKJ5riKtE4 gZQ/fkWjNbPF3cVPb6lGdk+8lEiJr2mI317i9AQTSBmJgdWM+vobed62SNUNQOaXcsqpLerJy/HV IpRAiPTjjTRdSTeZm1CmS93b9hpAjab46m2aQMq9oW0Lqs6uNMYq9c8kFFbUvhSf2kIRlan+LhO4 aQnQ4FN8aEsSr0AVJlOmbzjQaNCVYFxoTQIhig/hU/bzSznl2IjeSSPI1ioB82V12CQgq3jPfekU sHa/U2oPVQWt9GpIZrJsicRAcAqDy3Q3xprVRfXACYS4/uMVCpnLF68irDfFrjBlNGIqmEVcZfQX CempSKp/px7wSTFrdL7ePBTAjocvBeKlRLyUs/evvScqFVQRl2JrlqmuZpGQBLYr58eRz2PTtN4U uPtUIBq+fAga0q32fP+dfzO23hT4/TdB79yJ21etYsmrfy/+Wf27LMt35ul4+FJ8e3b06FPtJF7Z NSlYsitTM8a6HKxQvqbNearvS0L1d1GbLQX1us7oYroPpvrCQrcUUYbAChcLbSOfkkBoz7jgAnGk JS4w9ildZohan6iQ2PRetrhaubtKR9FdtBIWh+4NLtMXX6JwclGbOgk1fRMI4KjyGJ8Nd22kJl0l VKw3BeuVexNOpF2emSGTkH3UEsByRd+FbQgqZST4dNhzx4n5qptJFA0TOmRZ7qwWRH3NKs5Kdk2C 8eVjbOr/ofFaR00ghLfSbbyUNtt9NOFjAeotbt3mve4ufNwry3LydIpPnKl43XeRxYeRq9s9wnVK hf3eLJ1htO+vLa5NmBOh1GlJqG9Z+gi9UOpW0OmpPwffNAZiXGoL+Zuqc7CzhR8HD2xTK3128gC1 UGpmaAIhvvziT2/Z4t9/E94aMthtmFNHUxf8vr0eKfFdzGK9YU6tQO4d/KH1+pZxMQHcvi3fDv5A IHljTbMlZCuRV4ijPWe7rYZqlAjVIBF0c4MqfekQcQ6htrippxB+ENQXKNdGVkJp1JIDynOF4Dk0 IoTKlBsLpW0Af5moyxHkmsLlBLhQUGiLkVD23ZhLI15fIdeUZ9Nlry3aQmndPShePWsJAbSa8hwK 77DRFi2h9GH17rOg5gqtmb1PKKE/DFK4+GLLFJNotLOmdNESNs0RPTejZD4liVcHt3ENBSYmv9Nb 7HThns9Op2hmkA9yahcyd9JHbIquf9srlD5EXLWkp9qb/LhE5z0epKYA28wClwhMl1ah6EiX2/pg PB6wS452fZ8HqykhP4C1pXEm6fqSLkd2+Ga9KXD8+Sc2C0nFPg0m0xRuAgHuN/zkGKrvCZFrhWKy IQ5Xrm9uWYXHwP4Q+WB9ioKrtrRN/CdC6e26pAXbU7V9Q9O2ysyR1sHSjDUoQNTlHx0CXM1YHWQ+ xdUJQJRwNGN1ihC1/VCH//7vs2Bb2urAUTBVDj76quP65paVYKoKEdX95aEzOor4aUxpQUl28gOX +rwunDb8VJMk4jKgULDTGFD6lB5uC6goZC7fLfJpaOEoBaEzX/EK13+86n3zRCQGAvEyWIEsgXiY GX9lv1JlvSlwPHzp3deo/TZ30zq06nJCRWc+TVoCIVTG4ekNLVQ3iVdIr4Ysays2KJMGuMnzVQVP Vnks3+AQTFgdpGd43Zuqup/tPb0O0BRQvJQ25y4eMo80ouVkok52pqpebUKapCc4Hh6utnSlTRP2 cXA7TrhCNyKzCRBIbEztAOKl/Nd18eR4qD6ia45ti2l0XfdVE5ee4MevPv3ShzpLF1ZzdC5N2AYD 5DF4yK1vXaObvDQ1YfTf0deobvRmjfml7EURjBLTZYXzozrK9N35m6b5dSMxbzt4K/osGNvaS1dz 5vVUCOD+yI6emrP0441VmxKLrvu2mfHT28G5OiLK5RgoGY8HSK+GVmuQ8umwTXg3X3Woh/Rl1srr jizLjRKo80s5/eHti5+tErgNwnW+L3FXdmbB0fldSiNrzw4uvdjyOKr/bLa4u/j6G3leXUjuTlAy EFCdYJylWWwoRytqX2PdVbVKiwCwKke0ja3u6MSdBsHMWgCWQvFVmVMD7np+pK+SrhJQ04bY6qj1 nXbuGZN6Ti8HOlOiXsRscXfx5Rd/nr94FeHu0/ZTuvhs6L2+3mZ21Sd+o6MIWZZ3Gt+jGn1XQrck qRO7y/+P9JRF71btItGgYkm6Yc4z9mhpyrNA3FGNwLoF6PFStpUvn+lOl4Xns6Y4wqYcfFi9QAzY aYKFZem8GuPYrJdACE7jovqmsnchMdB8LnGIsZShmiD2F/G4WNv70IEas238Rx1eVF97BwuCGec7 BUQJG3vsA1tBUWtEE/8H96Z9TZI7oeYAAAAASUVORK5CYII= "
               height="34.550163"
               width="25.658573" />
            <text
               xml:space="preserve"
               style="font-style:normal;font-weight:normal;font-size:6.95967388px;line-height:125%;font-family:Sans;-inkscape-font-specification:Sans;text-align:center;letter-spacing:0px;word-spacing:0px;text-anchor:middle;display:inline;fill:#000000;fill-opacity:1;stroke:none;stroke-width:1.06666672;enable-background:new"
               x="158.85391"
               y="329.65677"
               id="text11041-3"><tspan
                 sodipodi:role="line"
                 id="tspan11043-2"
                 x="158.85391"
                 y="329.65677"
                 style="font-style:normal;font-variant:normal;font-weight:bold;font-stretch:normal;font-size:13.91934776px;font-family:Ricasso;-inkscape-font-specification:'Ricasso Bold';fill:#000000;stroke-width:1.06666672">C o e X I s T</tspan></text>
          </g>
          <g
             transform="matrix(1.3480854,0,0,1.3480854,-55.446128,-130.69331)"
             id="g8838"
             style="display:inline;enable-background:new">
            <text
               xml:space="preserve"
               style="font-style:normal;font-weight:normal;font-size:8.13867855px;line-height:125%;font-family:Sans;-inkscape-font-specification:Sans;text-align:center;letter-spacing:0px;word-spacing:0px;text-anchor:middle;fill:#ff2a2a;fill-opacity:1;stroke:none;stroke-width:1.06666672"
               x="158.82172"
               y="367.89499"
               id="text11041"><tspan
                 sodipodi:role="line"
                 x="161.62482"
                 y="367.89499"
                 style="font-style:normal;font-variant:normal;font-weight:normal;font-stretch:normal;font-size:7.47491503px;font-family:Ricasso;-inkscape-font-specification:Ricasso;fill:#ff2a2a;fill-opacity:1;stroke-width:1.06666672"
                 id="tspan16647"><tspan
   id="tspan5035"
   style="fill:#2b4d7e;fill-opacity:0.98431373;stroke-width:1.06666672">for generic</tspan> upstream Tarots </tspan></text>
            <text
               id="text16685"
               y="358.55475"
               x="159.44191"
               style="font-style:normal;font-weight:normal;font-size:8.13867855px;line-height:125%;font-family:Sans;-inkscape-font-specification:Sans;text-align:center;letter-spacing:0px;word-spacing:0px;text-anchor:middle;fill:#000000;fill-opacity:1;stroke:none;stroke-width:1.06666672"
               xml:space="preserve"><tspan
                 id="tspan16689"
                 style="font-style:normal;font-variant:normal;font-weight:bold;font-stretch:normal;font-size:26.5774765px;font-family:'Rubik One';-inkscape-font-specification:'Rubik One Bold';fill:#214478;stroke-width:1.06666672"
                 y="358.55475"
                 x="159.44191"
                 sodipodi:role="line"><tspan
   id="tspan5029"
   style="fill:#ff2a2a;stroke-width:1.06666672">Addon</tspan> Cards</tspan></text>
            <text
               xml:space="preserve"
               style="font-style:normal;font-weight:normal;font-size:7.75313616px;line-height:125%;font-family:Sans;-inkscape-font-specification:Sans;text-align:center;letter-spacing:0px;word-spacing:0px;text-anchor:middle;fill:#000000;fill-opacity:1;stroke:none;stroke-width:1.06666672"
               x="159.04755"
               y="376.88229"
               id="text11137"><tspan
                 sodipodi:role="line"
                 id="tspan11139"
                 x="159.04755"
                 y="376.88229"
                 style="font-weight:normal;font-size:6.81427908px;-inkscape-font-specification:Sans;stroke-width:1.06666672">https://github.com/braindef/Hackers-Cardgame-0.2.0</tspan></text>
          </g>
        </g>
        <g
           style="display:inline;enable-background:new"
           id="g8829"
           transform="matrix(1.3783133,0,0,1.3783133,51.231036,-298.73467)">
          <text
             id="text8713"
             y="93.836823"
             x="171.67911"
             style="font-style:normal;font-variant:normal;font-weight:bold;font-stretch:normal;font-size:40.75165558px;line-height:125%;font-family:Setperset;-inkscape-font-specification:'Setperset Bold';letter-spacing:0px;word-spacing:0px;fill:#000000;fill-opacity:1;stroke:none;stroke-width:1.06666672"
             xml:space="preserve"><tspan
               style="font-style:normal;font-variant:normal;font-weight:bold;font-stretch:normal;font-size:10.66666698px;font-family:'Anita  Semi-square';-inkscape-font-specification:'Anita  Semi-square Bold';text-align:start;text-anchor:start;stroke-width:1.06666672"
               y="93.836823"
               x="171.67911"
               sodipodi:role="line"
               id="tspan8742"
               dy="0 0 0 0 0 0 0 0">Cardgame</tspan></text>
          <g
             transform="translate(60.559792,14.933333)"
             id="g8816">
            <text
               id="text16685-0"
               y="68.589684"
               x="96.852058"
               style="font-style:normal;font-weight:normal;font-size:9.55485249px;line-height:125%;font-family:Sans;-inkscape-font-specification:Sans;text-align:center;letter-spacing:0px;word-spacing:0px;text-anchor:middle;display:inline;fill:#ff2a2a;fill-opacity:1;stroke:none;stroke-width:1.06666672;enable-background:new"
               xml:space="preserve"><tspan
                 id="tspan16689-6"
                 style="font-style:normal;font-variant:normal;font-weight:bold;font-stretch:normal;font-size:31.20209694px;font-family:'Rubik One';-inkscape-font-specification:'Rubik One Bold';fill:#ff2a2a;stroke-width:1.06666672"
                 y="68.589684"
                 x="96.852066"
                 sodipodi:role="line">Hackers</tspan></text>
            <text
               id="text16685-4"
               y="68.690414"
               x="99.405342"
               style="font-style:normal;font-weight:normal;font-size:9.55485249px;line-height:125%;font-family:Sans;-inkscape-font-specification:Sans;text-align:center;letter-spacing:0px;word-spacing:0px;text-anchor:middle;display:inline;fill:#000000;fill-opacity:1;stroke:none;stroke-width:1.06666672;enable-background:new"
               xml:space="preserve"><tspan
                 id="tspan16689-4"
                 style="font-style:normal;font-variant:normal;font-weight:bold;font-stretch:normal;font-size:31.20209694px;font-family:'Rubik One';-inkscape-font-specification:'Rubik One Bold';fill:#214478;stroke-width:1.06666672"
                 y="68.690414"
                 x="99.40535"
                 sodipodi:role="line">Hackers</tspan></text>
          </g>
        </g>
      </g>
      <g
         id="g6862-8"
         style="display:inline"
         transform="matrix(0.26458333,0,0,0.26458333,-37.442781,137.7847)">
        <rect
           style="display:inline;opacity:0.71929824;fill:none;stroke:#000100;stroke-width:0.54503554;stroke-miterlimit:4;stroke-dasharray:none;stroke-opacity:1;enable-background:new"
           id="rect12533-6-6"
           width="266.63925"
           height="361.0538"
           x="137.4614"
           y="-239.5677"
           rx="14.933333"
           ry="14.933333"
           inkscape:export-filename="/home/claude/Daten.2017/myLife/Tagebuch/2017/januar/Shrink-Disorder-Tarot-0.2.0/png/EN/s1.png"
           inkscape:export-xdpi="359.28"
           inkscape:export-ydpi="359.28" />
        <g
           style="display:inline;enable-background:new"
           id="g6621-8"
           transform="matrix(0.91595896,0,0,0.91595896,124.87894,-242.82023)">
          <g
             transform="translate(-0.38638102,-10)"
             id="g5059-3"
             style="display:inline;enable-background:new">
            <image
               y="294.09543"
               x="239.89445"
               id="image16633-8"
               xlink:href="data:image/png;base64,iVBORw0KGgoAAAANSUhEUgAAAGUAAACICAYAAAD+piWTAAAABHNCSVQICAgIfAhkiAAAC3FJREFU eJztXc1u4sgWPsZOSBATzSgKGqO7ubsoi0631I8wm3kE5pnmOeJHmM28wc1VgAXKrjctiHqUVpRB AYNNzYI5pHBsqJ9TP6b7k6zukGCX/dX5reNTAAeGcdxhrsegi8D1AGTwEoXsNMu3PptFIQAAFD/n f1f8/SwKoZXl3t67twNDMADjMz/w7Dk0XA+gDC9RyF6ikNkgBGBNPANgL1HoherzaoaUqSfbQJXn Ur15QwrOUtekIFyS41x98WrKF0IA1mM5zXJwodacksLbDJ8I4YESY5MYZ+rLlhGnhg132omk1JUQ hGmpsS4pPnhYFDApMVYl5VAIQZiSeGukMAASQmZRCAFAgMeiP0z4n21F53gvJoixcgMUA8eHvWLZ 1rmm6Qraze25NU1XcHZyHIzjDosnX3QvLTU+ChiXlJcoZHxiUBSzKIRZFMIk7sCiP0xWLGNFQgDg DSH42Ypl7OfxGAKAQOX6sqCUGKOSgjZkFoXScQga0jIiZIGSY9rrozL+RiUFiVCxJVSEALxKzqI/ TCZxB0xJDpUTY0xSdDytAICMEMQ0XQHAmqCHbhdM2hpd++I898UDPStqQgDWZKD9aX/6bHQNRTe4 NDIwflAy0jKLQsims1LjbQKNIDJmZ3RIN3b3mGWVQSvLA1uEAKzda1PemY60kD8BVVsyiTtvYhAb eJ4vWCvLrbjNoiAnRdW4dydfnGSs0TMLb+82npkOQbrfBzBgU1R19KI/TI6ur3rU45GBbjwTAAQM gGFcphq3kJKiorpmUQhPF+fw83isfF1MtZSlXFRQdAB2Bb/FZePisraKwSdVXyqEUKB5f580gig4 OzkOloNRonqeabqCabqC5/liE2juQyvLg/D2Lvn/3f9+x8+8yoRjqY7sAbD2hFSOsuum/eGN6vmK R9of3lTdb/E6j1/nDOC17kBDDdJBRxereF6NIAqqqiYp0zQA2xmBsp8Ry8EoyT9+6OGYVOxKrUnZ lS6hDkRl7BVOFoC1KpO1K2Q2xXYZzjRdwY9/PVb+/jTLoXl/r2xfqq4p8jcY+7SyXGnRzWnuC316 lUr55v19ss+gNt+/+015cAVg7mw5GCWNIArKjuVglODf6ajOiGrQOh7HrhmvilkUAhB7QegqM4De 5hoAm5gk//gBjv/9/9PFOem1laDqeel4TOO4U3k+VKdUHtg47jDeq5I98Lsiap7M0OtmW1WM/a4s L5Wh5z08lRXUsnEBbGuWot3xZj3lJQqZiCHlURVDoPqgJASAJigUyZ57Q8pplsPZybGU5B5dX/X4 WcZnCNqfPiuPZTkYJQ/drpVKzrKshjekIGSlpbgmMok7EN7eJTpS8vjrLz2Mf0ylTNDzLAssyWwK VfXjoj9M0svLnspDNZWQpAYvHWWkkEoKxTqETmxBFb2n/eGNSDJSFadZDhhclv3eeeqeB5Jqc52+ CiZrxfZF+V7kvoowVdGiAlRlxUBRdPIVXWCRtIt3hh5gTa7OugglcG1Ft/JRpvjcK/XFIwAInucL BkBnK0SBqgtgu6AcP68qoSqzqU8X59L1B15KCsCa4LOTY6slRwi8JgNgD90uoNS2mw14ni9YNp1B eHuXYBY4AAgmcQeeLs43BhwPlYIQbwonithE5Z8+OzP6D93uJlmK6qsovbwbzv+/EUT+FeNR4Me/ HqWjfEqc//Hnxq5hYjFqn8LZyfEmVV/8zjRdaREC4LGk8HBZflRcRSxD0ZboNucxMgupiXHtIu+L 8He5yCorj7UgBcAPYmQL11WLvI3YFBN1ueO4I53apwSWtoqqIp2qe2NGlFpaTJQNqYKPYwDWE4ay FtqY92Xq9QIfIn0sjMCqSOridKPuJqW0oDF1bVum6Qqa9/cJZaVMEUbjFBOvsLnMizWCKIjap3D8 /l1Ppyx1H4wHZnX3xNC5qErjm5h4ZHVfVcB3NijPabPNbbvZKH01AsBc1zyv0yxViCdftFMZolgO RknZpDLZ88v4jZnqXGRThRULyU03YqulTQFYP5iTZWri1G9QlmYx+R6+UfVluhLflhf2PF+8afpj 8t6sNMwxAdsRfpmxr6Wh9+rdP02Ulciakpba5L7KgOv4tlYmcSVyV3E2BWrpEiPGcccaIQCvOS7e vpiQFmMNc2yprr/nC6tr+POj5hu1TC0tRu7GBiGbMlfi9xr3ocy4U6tqIw1zbDSfUemSRIFd79VT gTz3dUgeVxnwnZiidDAARqXGSCXFlpQUYXOZeJqujEtLbdbofUG72YCj66te2asShAXuNLDdMp1P n7tYiawqO6JQYbWOU1zi8eu8VFVTSAsJKa42FnDpVPz0U/SmgQHVBjgk6stGSqUKLgspqlYkAfQW wbQlxZdt+Fwg7Q9v+J6RGDudZrlf3VZtw0YwVwUsOqdWo1qkHNomNSqoUlM60lJ7SXGNXZKqOmGV SfmWbQmPo+ur3q5gWeU5fZcUAuzq7aUiLUpumw+2BGenrYqWKog0QZBdz1eSFNeEILzoPicA2ecl TYqrTHARp1nurD8+j3azIeSWy9iWWtsUlzEKj/TykvQlWSlS0Jb4or58QbvZAJGuR6LSIiX+LnNc RdguL9oHkTeIAcRyYsKk+EKI63WUKog2bhPxxPyYZoJAQp4uzp3sSmQLQpLii5QgXL/3WAYZSQHY rcb2VrO8RCGj7oStg1kUQnp754XXpQIRJ2mv+vLN02pleUDtglJA1j3f5YntJMXXpKMvHpcp7L07 H6J3hI+2RAdVk77SpvgoJb5E8EVM0xXA5WXvWOI7u8xCpQfw3eOSwzRdwQ8nMrSsURa3lKovHwnB NoG+grL633uLOYtCSPvDm0M17mVr+W9sim9S0sryYHV95dWYqFG0L1vTD9dKfPG4fLcjlOClJaj6 heugsW6EUOwkgcXhG0nh10p8IOR5vnDanlAFuhoGhcJ4FyNR+JqSlwHVZG4A+BMo1pmQcdzZ2GNV iUFPrMF/4AKzKIQAIMims1qvkRSbHujAmfM/i8LN/lkrlnmzrKuC5WC02Z1V1yb/u6mBm1fjWlnu 1Rq7Cva1MpTFlveluvGw6oXD27uk7oQAvO4nrAtU4fjzlvcVAJTu706BACBI+8MbjM7Tmrm7Vahq ZyiKACAoruxWSse+nRBkL3wIklEG1aBxl2aqjFP4dDKF9BwiISpSImImlO2IjCTVLWUiAhPV9ggt 4y4qQYdIislexYenUyyguJcKgqqnpBYprhOXLrAcjJJx3NnSENRNPpVJ8W0xzAaWg1Hy+OsvPdzR DkHddVXpZCoeR91tynIwSvKPH3qmWxUCSKbuN3r0G1Jbu7ysWRQaeRbC6osBKMUqsygE3ytRqrCP EKfNovlByRLTynInW83qYjkYJdP//qdUVZvegGBvLbFuXsfXqsYqLAej5KHbheP373r8ThA8TBIC sCf3paKuJnEHupMvwePXOTtqyWVR+b13baC41+847rAqIoowLS1bQOnAf0UOdADS/vBmxTLGH8/z BauSlnHcYS9RuHWU/V3aH96UnVv3QFs3jjvC91p2mGMDXjctLj7wIkH8wyt7WDwJPMkyRJeNA7d9 UiXoeb5gvGuuM55dk9MoIXjwe2DteiBIRtXN6pLCfx8fgAgZZZPE5KFNzr4ZjITgLKs6RM5l4uDH h2PkVaauanJBzt5tvXngC/zF9hvjuMMw9eCyKqaV5ZuVU77Mx3WOTjbqDwDgm8xj2YYMMQ38Ah4y xWS+FILXATITX/k9er7DKO7r+x27ISotQpEaL0l46A3v24OMVlEu8MZo1pc65EOCdk7DWqphD9AW FiXZh5egZFMyJK9CoCsK4Nb95G8ciWFZ7qSTn06LddJZ7qrhp4iNszU2CntrRPWgt2YygKPI0sq8 Tki1uYAIrNgDHdVmeu93H/EPZo7rEE3kqrwAAAAASUVORK5CYII= "
               height="38.515827"
               width="27.204048" />
            <image
               y="296.35135"
               x="52.252037"
               id="image16644-3"
               xlink:href="data:image/png;base64,iVBORw0KGgoAAAANSUhEUgAAAGUAAACICAYAAAD+piWTAAAABHNCSVQICAgIfAhkiAAACaZJREFU eJztnc9u40YSh3/NaMbCjGBb5ugUBAGCAMkpk01eYYG8ifMAeY3dB7DeZC7zBtFKvuwGzmWxyInD oWQIA8tm2HuQW6ZpkmJ3V3cXFX9AgMl4TDZZXX+6qtgN9JV4KWv/fACI0ANoYwJJ9rITCNbPWobd QCkF0QR3AbEYnA9B1MFVOEEHFUoYVZJ4BaSnbAQUZCBchFGFi+ZEPm82gZRcBQLcTxYGkZyfmREv 5SQ98XIrKkJqjfMbc9aMfYQSjNOb9lkgihCCceNT4iVr36FDiOegnwU99B9d8Kkx5DfyObM6rS8I J4kvwZDexEuKJF5t/5CeiuubWzk6arbA602B0VGESAwElXB8CIbMp/gSyOz962nxYYRC5q0CAQD1 80LmsvgwQgIhknj1IFgDfDwnidR9JRELmVvfJ8tyxGdDYTNm19pirSmuBZLEK7xb5FMKgQDAeDxA IXNp82JdP7O1xF0OkEo7mojEwFhjXCYxrS7aZ4EoojdrmAYArsyY14RkV3wJBADSq6Hx77qalOzs qk+BKKzMmANtYaMp1A5dh/Tjjfk9HaT6WWhKAiFmi7uL778T51TX1IWTtgxMfqk6+CReWTnLENrB GRrzlZ4KtVruglpVcxIIJxNmLRSluoXM5ez962lXwczevybxH5EYCPXf/FJOTa8zHhsZDQAwthJN aNvCJ6YL4klicH4ppz+8ffEzgO0sKi2yKH1HnR+w0T4uaxZrofzn42bvLFtvCgAPCUIK2hzzu0U+ NRF874Wi0gwhfEKW5fj27Kjx56bawiUC0566CYRIIER6NcT1zW0QJx2fDfcWtswuHL69CLBw9OPx AKOjCFmWY34pp2WHG4mBiN6sEYmBWM1h7HxNmaQnO5Op+3vGEArUOOSI3qwB7B7kfAL5yIYnWGEC Kcd/pzVzWZZTXKbhup85ubYue+0g1co9gRC/rm7/8bfj6Bfba+2z/SY+xcaflO9r8/uKJ5riKtE4 gZQ/fkWjNbPF3cVPb6lGdk+8lEiJr2mI317i9AQTSBmJgdWM+vobed62SNUNQOaXcsqpLerJy/HV IpRAiPTjjTRdSTeZm1CmS93b9hpAjab46m2aQMq9oW0Lqs6uNMYq9c8kFFbUvhSf2kIRlan+LhO4 aQnQ4FN8aEsSr0AVJlOmbzjQaNCVYFxoTQIhig/hU/bzSznl2IjeSSPI1ioB82V12CQgq3jPfekU sHa/U2oPVQWt9GpIZrJsicRAcAqDy3Q3xprVRfXACYS4/uMVCpnLF68irDfFrjBlNGIqmEVcZfQX CempSKp/px7wSTFrdL7ePBTAjocvBeKlRLyUs/evvScqFVQRl2JrlqmuZpGQBLYr58eRz2PTtN4U uPtUIBq+fAga0q32fP+dfzO23hT4/TdB79yJ21etYsmrfy/+Wf27LMt35ul4+FJ8e3b06FPtJF7Z NSlYsitTM8a6HKxQvqbNearvS0L1d1GbLQX1us7oYroPpvrCQrcUUYbAChcLbSOfkkBoz7jgAnGk JS4w9ildZohan6iQ2PRetrhaubtKR9FdtBIWh+4NLtMXX6JwclGbOgk1fRMI4KjyGJ8Nd22kJl0l VKw3BeuVexNOpF2emSGTkH3UEsByRd+FbQgqZST4dNhzx4n5qptJFA0TOmRZ7qwWRH3NKs5Kdk2C 8eVjbOr/ofFaR00ghLfSbbyUNtt9NOFjAeotbt3mve4ufNwry3LydIpPnKl43XeRxYeRq9s9wnVK hf3eLJ1htO+vLa5NmBOh1GlJqG9Z+gi9UOpW0OmpPwffNAZiXGoL+Zuqc7CzhR8HD2xTK3128gC1 UGpmaAIhvvziT2/Z4t9/E94aMthtmFNHUxf8vr0eKfFdzGK9YU6tQO4d/KH1+pZxMQHcvi3fDv5A IHljTbMlZCuRV4ijPWe7rYZqlAjVIBF0c4MqfekQcQ6htrippxB+ENQXKNdGVkJp1JIDynOF4Dk0 IoTKlBsLpW0Af5moyxHkmsLlBLhQUGiLkVD23ZhLI15fIdeUZ9Nlry3aQmndPShePWsJAbSa8hwK 77DRFi2h9GH17rOg5gqtmb1PKKE/DFK4+GLLFJNotLOmdNESNs0RPTejZD4liVcHt3ENBSYmv9Nb 7HThns9Op2hmkA9yahcyd9JHbIquf9srlD5EXLWkp9qb/LhE5z0epKYA28wClwhMl1ah6EiX2/pg PB6wS452fZ8HqykhP4C1pXEm6fqSLkd2+Ga9KXD8+Sc2C0nFPg0m0xRuAgHuN/zkGKrvCZFrhWKy IQ5Xrm9uWYXHwP4Q+WB9ioKrtrRN/CdC6e26pAXbU7V9Q9O2ysyR1sHSjDUoQNTlHx0CXM1YHWQ+ xdUJQJRwNGN1ihC1/VCH//7vs2Bb2urAUTBVDj76quP65paVYKoKEdX95aEzOor4aUxpQUl28gOX +rwunDb8VJMk4jKgULDTGFD6lB5uC6goZC7fLfJpaOEoBaEzX/EK13+86n3zRCQGAvEyWIEsgXiY GX9lv1JlvSlwPHzp3deo/TZ30zq06nJCRWc+TVoCIVTG4ekNLVQ3iVdIr4Ysays2KJMGuMnzVQVP Vnks3+AQTFgdpGd43Zuqup/tPb0O0BRQvJQ25y4eMo80ouVkok52pqpebUKapCc4Hh6utnSlTRP2 cXA7TrhCNyKzCRBIbEztAOKl/Nd18eR4qD6ia45ti2l0XfdVE5ee4MevPv3ShzpLF1ZzdC5N2AYD 5DF4yK1vXaObvDQ1YfTf0deobvRmjfml7EURjBLTZYXzozrK9N35m6b5dSMxbzt4K/osGNvaS1dz 5vVUCOD+yI6emrP0441VmxKLrvu2mfHT28G5OiLK5RgoGY8HSK+GVmuQ8umwTXg3X3Woh/Rl1srr jizLjRKo80s5/eHti5+tErgNwnW+L3FXdmbB0fldSiNrzw4uvdjyOKr/bLa4u/j6G3leXUjuTlAy EFCdYJylWWwoRytqX2PdVbVKiwCwKke0ja3u6MSdBsHMWgCWQvFVmVMD7np+pK+SrhJQ04bY6qj1 nXbuGZN6Ti8HOlOiXsRscXfx5Rd/nr94FeHu0/ZTuvhs6L2+3mZ21Sd+o6MIWZZ3Gt+jGn1XQrck qRO7y/+P9JRF71btItGgYkm6Yc4z9mhpyrNA3FGNwLoF6PFStpUvn+lOl4Xns6Y4wqYcfFi9QAzY aYKFZem8GuPYrJdACE7jovqmsnchMdB8LnGIsZShmiD2F/G4WNv70IEas238Rx1eVF97BwuCGec7 BUQJG3vsA1tBUWtEE/8H96Z9TZI7oeYAAAAASUVORK5CYII= "
               height="34.550163"
               width="25.658573" />
            <text
               xml:space="preserve"
               style="font-style:normal;font-weight:normal;font-size:6.95967388px;line-height:125%;font-family:Sans;-inkscape-font-specification:Sans;text-align:center;letter-spacing:0px;word-spacing:0px;text-anchor:middle;display:inline;fill:#000000;fill-opacity:1;stroke:none;stroke-width:1.06666672;enable-background:new"
               x="158.85391"
               y="329.65677"
               id="text11041-3-33"><tspan
                 sodipodi:role="line"
                 id="tspan11043-2-8"
                 x="158.85391"
                 y="329.65677"
                 style="font-style:normal;font-variant:normal;font-weight:bold;font-stretch:normal;font-size:13.91934776px;font-family:Ricasso;-inkscape-font-specification:'Ricasso Bold';fill:#000000;stroke-width:1.06666672">C o e X I s T</tspan></text>
          </g>
          <g
             transform="matrix(1.3480854,0,0,1.3480854,-55.446128,-130.69331)"
             id="g8838-0"
             style="display:inline;enable-background:new">
            <text
               xml:space="preserve"
               style="font-style:normal;font-weight:normal;font-size:8.13867855px;line-height:125%;font-family:Sans;-inkscape-font-specification:Sans;text-align:center;letter-spacing:0px;word-spacing:0px;text-anchor:middle;fill:#ff2a2a;fill-opacity:1;stroke:none;stroke-width:1.06666672"
               x="158.82172"
               y="367.89499"
               id="text11041-4"><tspan
                 sodipodi:role="line"
                 x="161.62482"
                 y="367.89499"
                 style="font-style:normal;font-variant:normal;font-weight:normal;font-stretch:normal;font-size:7.47491503px;font-family:Ricasso;-inkscape-font-specification:Ricasso;fill:#ff2a2a;fill-opacity:1;stroke-width:1.06666672"
                 id="tspan16647-7"><tspan
   id="tspan5035-6"
   style="fill:#2b4d7e;fill-opacity:0.98431373;stroke-width:1.06666672">for generic</tspan> upstream Tarots </tspan></text>
            <text
               id="text16685-8"
               y="358.55475"
               x="159.44191"
               style="font-style:normal;font-weight:normal;font-size:8.13867855px;line-height:125%;font-family:Sans;-inkscape-font-specification:Sans;text-align:center;letter-spacing:0px;word-spacing:0px;text-anchor:middle;fill:#000000;fill-opacity:1;stroke:none;stroke-width:1.06666672"
               xml:space="preserve"><tspan
                 id="tspan16689-9"
                 style="font-style:normal;font-variant:normal;font-weight:bold;font-stretch:normal;font-size:26.5774765px;font-family:'Rubik One';-inkscape-font-specification:'Rubik One Bold';fill:#214478;stroke-width:1.06666672"
                 y="358.55475"
                 x="159.44191"
                 sodipodi:role="line"><tspan
   id="tspan5029-06"
   style="fill:#ff2a2a;stroke-width:1.06666672">Addon</tspan> Cards</tspan></text>
            <text
               xml:space="preserve"
               style="font-style:normal;font-weight:normal;font-size:7.75313616px;line-height:125%;font-family:Sans;-inkscape-font-specification:Sans;text-align:center;letter-spacing:0px;word-spacing:0px;text-anchor:middle;fill:#000000;fill-opacity:1;stroke:none;stroke-width:1.06666672"
               x="159.04755"
               y="376.88229"
               id="text11137-8"><tspan
                 sodipodi:role="line"
                 id="tspan11139-7"
                 x="159.04755"
                 y="376.88229"
                 style="font-weight:normal;font-size:6.81427908px;-inkscape-font-specification:Sans;stroke-width:1.06666672">https://github.com/braindef/Hackers-Cardgame-0.2.0</tspan></text>
          </g>
        </g>
        <g
           style="display:inline;enable-background:new"
           id="g8829-9"
           transform="matrix(1.3783133,0,0,1.3783133,51.231036,-298.73467)">
          <text
             id="text8713-0"
             y="93.836823"
             x="171.67911"
             style="font-style:normal;font-variant:normal;font-weight:bold;font-stretch:normal;font-size:40.75165558px;line-height:125%;font-family:Setperset;-inkscape-font-specification:'Setperset Bold';letter-spacing:0px;word-spacing:0px;fill:#000000;fill-opacity:1;stroke:none;stroke-width:1.06666672"
             xml:space="preserve"><tspan
               style="font-style:normal;font-variant:normal;font-weight:bold;font-stretch:normal;font-size:10.66666698px;font-family:'Anita  Semi-square';-inkscape-font-specification:'Anita  Semi-square Bold';text-align:start;text-anchor:start;stroke-width:1.06666672"
               y="93.836823"
               x="171.67911"
               sodipodi:role="line"
               id="tspan8742-3"
               dy="0 0 0 0 0 0 0 0">Cardgame</tspan></text>
          <g
             transform="translate(60.559792,14.933333)"
             id="g8816-3">
            <text
               id="text16685-0-3"
               y="68.589684"
               x="96.852058"
               style="font-style:normal;font-weight:normal;font-size:9.55485249px;line-height:125%;font-family:Sans;-inkscape-font-specification:Sans;text-align:center;letter-spacing:0px;word-spacing:0px;text-anchor:middle;display:inline;fill:#ff2a2a;fill-opacity:1;stroke:none;stroke-width:1.06666672;enable-background:new"
               xml:space="preserve"><tspan
                 id="tspan16689-6-7"
                 style="font-style:normal;font-variant:normal;font-weight:bold;font-stretch:normal;font-size:31.20209694px;font-family:'Rubik One';-inkscape-font-specification:'Rubik One Bold';fill:#ff2a2a;stroke-width:1.06666672"
                 y="68.589684"
                 x="96.852066"
                 sodipodi:role="line">Hackers</tspan></text>
            <text
               id="text16685-4-3"
               y="68.690414"
               x="99.405342"
               style="font-style:normal;font-weight:normal;font-size:9.55485249px;line-height:125%;font-family:Sans;-inkscape-font-specification:Sans;text-align:center;letter-spacing:0px;word-spacing:0px;text-anchor:middle;display:inline;fill:#000000;fill-opacity:1;stroke:none;stroke-width:1.06666672;enable-background:new"
               xml:space="preserve"><tspan
                 id="tspan16689-4-2"
                 style="font-style:normal;font-variant:normal;font-weight:bold;font-stretch:normal;font-size:31.20209694px;font-family:'Rubik One';-inkscape-font-specification:'Rubik One Bold';fill:#214478;stroke-width:1.06666672"
                 y="68.690414"
                 x="99.40535"
                 sodipodi:role="line">Hackers</tspan></text>
          </g>
        </g>
      </g>
    </g>
  </g>
  <g
     inkscape:groupmode="layer"
     id="layer2"
     inkscape:label="front"
     style="display:inline" />
</svg>
